{"count":187,"next":"https://ll.thespacedevs.com/2.0.0/launch/upcoming/?limit=10&offset=10","previous":null,"results":[{"id":"ce27d597-32b9-4871-a222-f76cd73e0ee3","url":"https://ll.thespacedevs.com/2.2.0/launch/ce27d597-32b9-4871-a222-f76cd73e0ee3/","launch_library_id":null,"slug":"hyperbola-1-unknown-2","name":"Hyperbola-1 | Unknown","status":{"id":2,"name":"TBD"},"net":"2021-08-03T00:00:00Z","window_end":"2021-08-03T00:00:00Z","window_start":"2021-08-03T00:00:00Z","inhold":false,"tbdtime":false,"tbddate":false,"probability":null,"holdreason":"","failreason":"","hashtag":null,"launch_service_provider":{"id":274,"url":"https://ll.thespacedevs.com/2.2.0/agencies/274/","name":"iSpace","type":null},"rocket":{"id":2976,"configuration":{"id":193,"launch_library_id":222,"url":"https://ll.thespacedevs.com/2.2.0/config/launcher/193/","name":"Hyperbola-1","family":"Hyperbola","full_name":"Hyperbola-1","variant":"1"}},"mission":null,"pad":{"id":142,"url":"https://ll.thespacedevs.com/2.2.0/pad/142/","agency_id":null,"name":"Unknown Pad","info_url":null,"wiki_url":"https://en.wikipedia.org/wiki/Jiuquan_Satellite_Launch_Center","map_url":"http://maps.google.com/maps?q=40.9605556,100.2961393","latitude":"40.9605556","longitude":"100.2961393","location":{"id":17,"url":"https://ll.thespacedevs.com/2.2.0/location/17/","name":"Jiuquan, People's Republic of China","country_code":"CHN","map_image":"https://spacelaunchnow-prod-east.nyc3.digitaloceanspaces.com/media/launch_images/location_17_20200803142429.jpg","total_launch_count":106,"total_landing_count":0},"map_image":"https://spacelaunchnow-prod-east.nyc3.digitaloceanspaces.com/media/launch_images/pad_142_20200803143244.jpg","total_launch_count":0},"webcast_live":false,"image":"https://spacelaunchnow-prod-east.nyc3.digitaloceanspaces.com/media/launcher_images/hyperbola-1_image_20190724014013.jpg","infographic":null,"program":[]},{"id":"f1bcfbf6-d00d-42d7-bc68-82252817a57e","url":"https://ll.thespacedevs.com/2.2.0/launch/f1bcfbf6-d00d-42d7-bc68-82252817a57e/","launch_library_id":2055,"slug":"atlas-v-n22-cst-100-starliner-orbital-flight-tes-2","name":"Atlas V N22 | CST-100 Starliner Orbital Flight Test 2 (Uncrewed)","status":{"id":1,"name":"Go"},"net":"2021-08-03T17:20:00Z","window_end":"2021-08-03T17:20:00Z","window_start":"2021-08-03T17:20:00Z","inhold":false,"tbdtime":true,"tbddate":true,"probability":60,"holdreason":"","failreason":"","hashtag":null,"launch_service_provider":{"id":124,"url":"https://ll.thespacedevs.com/2.2.0/agencies/124/","name":"United Launch Alliance","type":"Commercial"},"rocket":{"id":2702,"configuration":{"id":166,"launch_library_id":118,"url":"https://ll.thespacedevs.com/2.2.0/config/launcher/166/","name":"Atlas V N22","family":"Atlas","full_name":"Atlas V N22","variant":"V N22"}},"mission":{"id":1109,"launch_library_id":1305,"name":"CST-100 Starliner Orbital Flight Test 2 (Uncrewed)","description":"This is the second uncrewed test flight for the Starliner spacecraft. Reflight of the OFT mission will allow Boeing to demonstrate readiness of the spacecraft and implement corrections to the problems which were found during the first OFT flight.","launch_designator":null,"type":"Test Flight","orbit":{"id":8,"name":"Low Earth Orbit","abbrev":"LEO"}},"pad":{"id":29,"url":"https://ll.thespacedevs.com/2.2.0/pad/29/","agency_id":null,"name":"Space Launch Complex 41","info_url":null,"wiki_url":"https://en.wikipedia.org/wiki/Cape_Canaveral_Air_Force_Station_Space_Launch_Complex_41","map_url":"http://maps.google.com/maps?q=28.58341025,-80.58303644","latitude":"28.58341025","longitude":"-80.58303644","location":{"id":12,"url":"https://ll.thespacedevs.com/2.2.0/location/12/","name":"Cape Canaveral, FL, USA","country_code":"USA","map_image":"https://spacelaunchnow-prod-east.nyc3.digitaloceanspaces.com/media/launch_images/location_12_20200803142519.jpg","total_launch_count":223,"total_landing_count":21},"map_image":"https://spacelaunchnow-prod-east.nyc3.digitaloceanspaces.com/media/launch_images/pad_29_20200803143528.jpg","total_launch_count":72},"webcast_live":false,"image":"https://spacelaunchnow-prod-east.nyc3.digitaloceanspaces.com/media/launcher_images/atlas2520v2520n22_image_20190224012241.jpeg","infographic":"https://spacelaunchnow-prod-east.nyc3.digitaloceanspaces.com/media/launch_images/atlas2520v252_infographic_20210729223540.jpeg","program":[{"id":5,"url":"https://ll.thespacedevs.com/2.2.0/program/5/","name":"Commercial Crew Program","description":"The Commercial Crew Program (CCP) is a human spaceflight program operated by NASA, in association with American aerospace manufacturers Boeing and SpaceX. The program conducts rotations between the expeditions of the International Space Station program, transporting crews to and from the International Space Station (ISS) aboard Boeing Starliner and SpaceX Crew Dragon capsules, in the first crewed orbital spaceflights operated by private companies.","agencies":[{"id":80,"url":"https://ll.thespacedevs.com/2.2.0/agencies/80/","name":"Boeing","type":"Commercial"},{"id":44,"url":"https://ll.thespacedevs.com/2.2.0/agencies/44/","name":"National Aeronautics and Space Administration","type":"Government"},{"id":121,"url":"https://ll.thespacedevs.com/2.2.0/agencies/121/","name":"SpaceX","type":"Commercial"}],"image_url":"https://spacelaunchnow-prod-east.nyc3.digitaloceanspaces.com/media/program_images/commercial2520_program_20200820201209.png","start_date":"2011-04-18T00:00:00Z","end_date":null,"info_url":"https://www.nasa.gov/exploration/commercial/crew/index.html","wiki_url":"https://en.wikipedia.org/wiki/Commercial_Crew_Program"},{"id":17,"url":"https://ll.thespacedevs.com/2.2.0/program/17/","name":"International Space Station","description":"The International Space Station programme is tied together by a complex set of legal, political and financial agreements between the sixteen nations involved in the project, governing ownership of the various components, rights to crewing and utilization, and responsibilities for crew rotation and resupply of the International Space Station. It was conceived in 1984 by President Ronald Reagan, during the Space Station Freedom project as it was originally called.","agencies":[{"id":16,"url":"https://ll.thespacedevs.com/2.2.0/agencies/16/","name":"Canadian Space Agency","type":"Government"},{"id":27,"url":"https://ll.thespacedevs.com/2.2.0/agencies/27/","name":"European Space Agency","type":"Multinational"},{"id":37,"url":"https://ll.thespacedevs.com/2.2.0/agencies/37/","name":"Japan Aerospace Exploration Agency","type":"Government"},{"id":44,"url":"https://ll.thespacedevs.com/2.2.0/agencies/44/","name":"National Aeronautics and Space Administration","type":"Government"},{"id":63,"url":"https://ll.thespacedevs.com/2.2.0/agencies/63/","name":"Russian Federal Space Agency (ROSCOSMOS)","type":"Government"}],"image_url":"https://spacelaunchnow-prod-east.nyc3.digitaloceanspaces.com/media/program_images/international2_program_20201129184745.png","start_date":"1998-11-20T06:40:00Z","end_date":null,"info_url":"https://www.nasa.gov/mission_pages/station/main/index.html","wiki_url":"https://en.wikipedia.org/wiki/International_Space_Station_programme"}]},{"id":"69b1d093-11c2-4e36-8d85-a22304b555ba","url":"https://ll.thespacedevs.com/2.2.0/launch/69b1d093-11c2-4e36-8d85-a22304b555ba/","launch_library_id":null,"slug":"long-march-3b-zhongxing-2e-chinasat-2e","name":"Long March 3B | Zhongxing 2E (Chinasat 2E)","status":{"id":1,"name":"Go"},"net":"2021-08-05T16:30:00Z","window_end":"2021-08-05T16:56:00Z","window_start":"2021-08-05T16:20:00Z","inhold":false,"tbdtime":false,"tbddate":false,"probability":null,"holdreason":"","failreason":"","hashtag":null,"launch_service_provider":{"id":88,"url":"https://ll.thespacedevs.com/2.2.0/agencies/88/","name":"China Aerospace Science and Technology Corporation","type":"Government"},"rocket":{"id":2975,"configuration":{"id":50,"launch_library_id":69,"url":"https://ll.thespacedevs.com/2.2.0/config/launcher/50/","name":"Long March 3","family":"Long March 3","full_name":"Long March 3B/E","variant":"B/E"}},"mission":{"id":1402,"launch_library_id":null,"name":"Zhongxing 2E (Chinasat 2E)","description":"Chinasat 2E is a geostationary communications satellite.","launch_designator":null,"type":"Communications","orbit":{"id":1,"name":"Geostationary Orbit","abbrev":"Direct-GEO"}},"pad":{"id":45,"url":"https://ll.thespacedevs.com/2.2.0/pad/45/","agency_id":null,"name":"Launch Complex 2 (LC-2)","info_url":null,"wiki_url":"https://en.wikipedia.org/wiki/Xichang_Satellite_Launch_Center","map_url":"https://www.google.com/maps/?q=28.246017,102.026556","latitude":"28.246017","longitude":"102.026556","location":{"id":16,"url":"https://ll.thespacedevs.com/2.2.0/location/16/","name":"Xichang Satellite Launch Center, People's Republic of China","country_code":"CHN","map_image":"https://spacelaunchnow-prod-east.nyc3.digitaloceanspaces.com/media/launch_images/location_16_20200803142513.jpg","total_launch_count":106,"total_landing_count":0},"map_image":"https://spacelaunchnow-prod-east.nyc3.digitaloceanspaces.com/media/launch_images/pad_45_20200803143520.jpg","total_launch_count":51},"webcast_live":false,"image":"https://spacelaunchnow-prod-east.nyc3.digitaloceanspaces.com/media/launcher_images/long2520march25203_image_20190224025008.jpeg","infographic":null,"program":[]},{"id":"6b9f9fe6-7f94-498b-a664-7c9e42dbe76d","url":"https://ll.thespacedevs.com/2.2.0/launch/6b9f9fe6-7f94-498b-a664-7c9e42dbe76d/","launch_library_id":null,"slug":"falcon-9-block-5-starlink-2-1","name":"Falcon 9 Block 5 | Starlink 2-1","status":{"id":2,"name":"TBD"},"net":"2021-08-10T00:00:00Z","window_end":"2021-08-10T00:00:00Z","window_start":"2021-08-10T00:00:00Z","inhold":false,"tbdtime":false,"tbddate":false,"probability":null,"holdreason":"","failreason":"","hashtag":null,"launch_service_provider":{"id":121,"url":"https://ll.thespacedevs.com/2.2.0/agencies/121/","name":"SpaceX","type":"Commercial"},"rocket":{"id":2958,"configuration":{"id":164,"launch_library_id":188,"url":"https://ll.thespacedevs.com/2.2.0/config/launcher/164/","name":"Falcon 9 Block 5","family":"Falcon","full_name":"Falcon 9 Block 5","variant":"Block 5"}},"mission":{"id":1380,"launch_library_id":null,"name":"Starlink 2-1","description":"A batch of 60 satellites for Starlink mega-constellation - SpaceX's project for space-based Internet communication system.","launch_designator":null,"type":"Communications","orbit":{"id":13,"name":"Polar Orbit","abbrev":"PO"}},"pad":{"id":16,"url":"https://ll.thespacedevs.com/2.2.0/pad/16/","agency_id":null,"name":"Space Launch Complex 4E","info_url":null,"wiki_url":"","map_url":"http://maps.google.com/maps?q=34.632+N,+120.611+W","latitude":"34.632","longitude":"-120.611","location":{"id":11,"url":"https://ll.thespacedevs.com/2.2.0/location/11/","name":"Vandenberg SFB, CA, USA","country_code":"USA","map_image":"https://spacelaunchnow-prod-east.nyc3.digitaloceanspaces.com/media/launch_images/location_11_20200803142416.jpg","total_launch_count":84,"total_landing_count":3},"map_image":"https://spacelaunchnow-prod-east.nyc3.digitaloceanspaces.com/media/launch_images/pad_16_20200803143532.jpg","total_launch_count":16},"webcast_live":false,"image":"https://spacelaunchnow-prod-east.nyc3.digitaloceanspaces.com/media/launch_images/falcon2520925_image_20210619160237.png","infographic":null,"program":[]},{"id":"6476f988-3289-4065-95f4-266b86774d3d","url":"https://ll.thespacedevs.com/2.2.0/launch/6476f988-3289-4065-95f4-266b86774d3d/","launch_library_id":null,"slug":"antares-230-cygnus-crs-2-ng-16-ss-ellison-onizuka","name":"Antares 230+ | Cygnus CRS-2 NG-16 (S.S. Ellison Onizuka)","status":{"id":1,"name":"Go"},"net":"2021-08-10T21:56:00Z","window_end":"2021-08-10T21:56:00Z","window_start":"2021-08-10T21:56:00Z","inhold":false,"tbdtime":false,"tbddate":false,"probability":null,"holdreason":"","failreason":"","hashtag":null,"launch_service_provider":{"id":257,"url":"https://ll.thespacedevs.com/2.2.0/agencies/257/","name":"Northrop Grumman Innovation Systems","type":"Commercial"},"rocket":{"id":2886,"configuration":{"id":210,"launch_library_id":241,"url":"https://ll.thespacedevs.com/2.2.0/config/launcher/210/","name":"Antares 230+","family":"Antares","full_name":"Antares 230+","variant":"230+"}},"mission":{"id":1302,"launch_library_id":null,"name":"Cygnus CRS-2 NG-16 (S.S. Ellison Onizuka)","description":"This is the 16th planned flight of the Orbital ATK's uncrewed resupply spacecraft Cygnus and its 15th flight to the International Space Station under the Commercial Resupply Services contract with NASA.\r\nThis Cygnus spacecraft is named after American astronaut Ellison Onizuka who died in the destruction of the Space Shuttle Challenger.","launch_designator":null,"type":"Resupply","orbit":{"id":8,"name":"Low Earth Orbit","abbrev":"LEO"}},"pad":{"id":76,"url":"https://ll.thespacedevs.com/2.2.0/pad/76/","agency_id":44,"name":"Launch Area 0 A","info_url":null,"wiki_url":"","map_url":"http://maps.google.com/maps?q=37.8337+N,+75.4881+W","latitude":"37.8337","longitude":"-75.4881","location":{"id":21,"url":"https://ll.thespacedevs.com/2.2.0/location/21/","name":"Wallops Island, Virginia, USA","country_code":"USA","map_image":"https://spacelaunchnow-prod-east.nyc3.digitaloceanspaces.com/media/launch_images/location_21_20200803142423.jpg","total_launch_count":22,"total_landing_count":0},"map_image":"https://spacelaunchnow-prod-east.nyc3.digitaloceanspaces.com/media/launch_images/pad_76_20200803143538.jpg","total_launch_count":14},"webcast_live":false,"image":"https://spacelaunchnow-prod-east.nyc3.digitaloceanspaces.com/media/launcher_images/antares2520230252b_image_20191102024633.jpeg","infographic":null,"program":[{"id":11,"url":"https://ll.thespacedevs.com/2.2.0/program/11/","name":"Commercial Resupply Services","description":"Commercial Resupply Services (CRS) are a series of flights awarded by NASA for the delivery of cargo and supplies to the International Space Station.The first CRS contracts were signed in 2008 and awarded $1.6 billion to SpaceX for twelve cargo Dragon and $1.9 billion to Orbital Sciences for eight Cygnus flights, covering deliveries to 2016. The Falcon 9 and Antares rockets were also developed under the CRS program to deliver cargo spacecraft to the ISS.","agencies":[{"id":44,"url":"https://ll.thespacedevs.com/2.2.0/agencies/44/","name":"National Aeronautics and Space Administration","type":"Government"},{"id":257,"url":"https://ll.thespacedevs.com/2.2.0/agencies/257/","name":"Northrop Grumman Innovation Systems","type":"Commercial"},{"id":1020,"url":"https://ll.thespacedevs.com/2.2.0/agencies/1020/","name":"Sierra Nevada Corporation","type":"Commercial"},{"id":121,"url":"https://ll.thespacedevs.com/2.2.0/agencies/121/","name":"SpaceX","type":"Commercial"}],"image_url":"https://spacelaunchnow-prod-east.nyc3.digitaloceanspaces.com/media/program_images/commercial2520_program_20201129212219.png","start_date":"2008-12-23T00:00:00Z","end_date":null,"info_url":null,"wiki_url":"https://en.wikipedia.org/wiki/Commercial_Resupply_Services#Commercial_Resupply_Services"}]},{"id":"397c50c5-8a2b-4ca5-807d-8911c14b7126","url":"https://ll.thespacedevs.com/2.2.0/launch/397c50c5-8a2b-4ca5-807d-8911c14b7126/","launch_library_id":1131,"slug":"gslv-mk-ii-eos-03-gisat-1","name":"GSLV Mk II | EOS-03 (GISAT-1)","status":{"id":2,"name":"TBD"},"net":"2021-08-12T00:13:00Z","window_end":"2021-08-12T00:13:00Z","window_start":"2021-08-12T00:13:00Z","inhold":false,"tbdtime":true,"tbddate":true,"probability":-1,"holdreason":"","failreason":"","hashtag":null,"launch_service_provider":{"id":31,"url":"https://ll.thespacedevs.com/2.2.0/agencies/31/","name":"Indian Space Research Organization","type":"Government"},"rocket":{"id":56,"configuration":{"id":168,"launch_library_id":60,"url":"https://ll.thespacedevs.com/2.2.0/config/launcher/168/","name":"GSLV Mk II","family":"PSLV","full_name":"GSLV Mk. II","variant":""}},"mission":{"id":750,"launch_library_id":458,"name":"GISAT-1","description":"GISAT-1 is an Indian earth observation satellite to be launched in geostationary orbit. It is tasked with continuous observation of Indian sub-continent and quick monitoring of natural hazards and disaster. GISAT carries an imaging payload consisting of of multi-spectral, multi-resolution from 50 m to 1.5 km. It will provide pictures of the area of interest on near real time basis including border areas.","launch_designator":null,"type":"Earth Science","orbit":{"id":2,"name":"Geostationary Transfer Orbit","abbrev":"GTO"}},"pad":{"id":82,"url":"https://ll.thespacedevs.com/2.2.0/pad/82/","agency_id":31,"name":"Satish Dhawan Space Centre Second Launch Pad","info_url":null,"wiki_url":"https://en.wikipedia.org/wiki/Satish_Dhawan_Space_Centre_Second_Launch_Pad","map_url":"https://www.google.com/maps?q=13.7199,80.2304","latitude":"13.7199","longitude":"80.2304","location":{"id":14,"url":"https://ll.thespacedevs.com/2.2.0/location/14/","name":"Sriharikota, Republic of India","country_code":"IND","map_image":"https://spacelaunchnow-prod-east.nyc3.digitaloceanspaces.com/media/launch_images/location_14_20200803142403.jpg","total_launch_count":54,"total_landing_count":0},"map_image":"https://spacelaunchnow-prod-east.nyc3.digitaloceanspaces.com/media/launch_images/pad_82_20200803143602.jpg","total_launch_count":15},"webcast_live":false,"image":"https://spacelaunchnow-prod-east.nyc3.digitaloceanspaces.com/media/launcher_images/gslv2520mk2520ii_image_20190825171642.jpg","infographic":"https://spacelaunchnow-prod-east.nyc3.digitaloceanspaces.com/media/launch_images/gslv2520mk252_infographic_20200805202604.png","program":[]},{"id":"e1140531-122d-4062-a5a5-194042674121","url":"https://ll.thespacedevs.com/2.2.0/launch/e1140531-122d-4062-a5a5-194042674121/","launch_library_id":null,"slug":"soyuz-21v-emka","name":"Soyuz 2.1v | EMKA","status":{"id":2,"name":"TBD"},"net":"2021-08-15T00:00:00Z","window_end":"2021-08-15T00:00:00Z","window_start":"2021-08-15T00:00:00Z","inhold":false,"tbdtime":false,"tbddate":false,"probability":null,"holdreason":"","failreason":"","hashtag":null,"launch_service_provider":{"id":175,"url":"https://ll.thespacedevs.com/2.2.0/agencies/175/","name":"Ministry of Defence of the Russian Federation","type":"Government"},"rocket":{"id":2972,"configuration":{"id":153,"launch_library_id":172,"url":"https://ll.thespacedevs.com/2.2.0/config/launcher/153/","name":"Soyuz","family":"Soyuz","full_name":"Soyuz 2-1v","variant":"2-1v"}},"mission":{"id":1400,"launch_library_id":null,"name":"EMKA","description":"The payload of this launch is reported to be a small reconnaissance satellite called EMKA which stands for \"Experimental Small Space Apparatus\".","launch_designator":null,"type":"Government/Top Secret","orbit":{"id":17,"name":"Sun-Synchronous Orbit","abbrev":"SSO"}},"pad":{"id":85,"url":"https://ll.thespacedevs.com/2.2.0/pad/85/","agency_id":163,"name":"43/4 (43R)","info_url":null,"wiki_url":"","map_url":"http://maps.google.com/maps?q=62.929+N,+40.457+E","latitude":"62.92883","longitude":"40.457098","location":{"id":6,"url":"https://ll.thespacedevs.com/2.2.0/location/6/","name":"Plesetsk Cosmodrome, Russian Federation","country_code":"RUS","map_image":"https://spacelaunchnow-prod-east.nyc3.digitaloceanspaces.com/media/launch_images/location_6_20200803142434.jpg","total_launch_count":73,"total_landing_count":0},"map_image":"https://spacelaunchnow-prod-east.nyc3.digitaloceanspaces.com/media/launch_images/pad_85_20200803143554.jpg","total_launch_count":39},"webcast_live":false,"image":"https://spacelaunchnow-prod-east.nyc3.digitaloceanspaces.com/media/launcher_images/soyuz_image_20190222031122.jpeg","infographic":null,"program":[]},{"id":"e4200e5c-2726-43f2-8439-36bd1be59821","url":"https://ll.thespacedevs.com/2.2.0/launch/e4200e5c-2726-43f2-8439-36bd1be59821/","launch_library_id":null,"slug":"falcon-9-block-5-starlink-30","name":"Falcon 9 Block 5 | Starlink 30","status":{"id":2,"name":"TBD"},"net":"2021-08-15T00:00:00Z","window_end":"2021-08-15T00:00:00Z","window_start":"2021-08-15T00:00:00Z","inhold":false,"tbdtime":false,"tbddate":false,"probability":null,"holdreason":"","failreason":"","hashtag":null,"launch_service_provider":{"id":121,"url":"https://ll.thespacedevs.com/2.2.0/agencies/121/","name":"SpaceX","type":"Commercial"},"rocket":{"id":2959,"configuration":{"id":164,"launch_library_id":188,"url":"https://ll.thespacedevs.com/2.2.0/config/launcher/164/","name":"Falcon 9 Block 5","family":"Falcon","full_name":"Falcon 9 Block 5","variant":"Block 5"}},"mission":{"id":1381,"launch_library_id":null,"name":"Starlink 30","description":"A batch of 60 satellites for Starlink mega-constellation - SpaceX's project for space-based Internet communication system.","launch_designator":null,"type":"Communications","orbit":{"id":13,"name":"Polar Orbit","abbrev":"PO"}},"pad":{"id":80,"url":"https://ll.thespacedevs.com/2.2.0/pad/80/","agency_id":121,"name":"Space Launch Complex 40","info_url":null,"wiki_url":"https://en.wikipedia.org/wiki/Cape_Canaveral_Air_Force_Station_Space_Launch_Complex_40","map_url":"http://maps.google.com/maps?q=28.56194122,-80.57735736","latitude":"28.56194122","longitude":"-80.57735736","location":{"id":12,"url":"https://ll.thespacedevs.com/2.2.0/location/12/","name":"Cape Canaveral, FL, USA","country_code":"USA","map_image":"https://spacelaunchnow-prod-east.nyc3.digitaloceanspaces.com/media/launch_images/location_12_20200803142519.jpg","total_launch_count":223,"total_landing_count":21},"map_image":"https://spacelaunchnow-prod-east.nyc3.digitaloceanspaces.com/media/launch_images/pad_80_20200803143323.jpg","total_launch_count":76},"webcast_live":false,"image":"https://spacelaunchnow-prod-east.nyc3.digitaloceanspaces.com/media/launch_images/falcon2520925_image_20210619160353.png","infographic":null,"program":[]},{"id":"c46cfec6-f135-41f9-995f-9482b8cbe668","url":"https://ll.thespacedevs.com/2.2.0/launch/c46cfec6-f135-41f9-995f-9482b8cbe668/","launch_library_id":1339,"slug":"vega-pleiades-neo-4","name":"Vega | Pléiades Neo 4","status":{"id":1,"name":"Go"},"net":"2021-08-16T01:50:00Z","window_end":"2021-08-16T01:50:00Z","window_start":"2021-08-16T01:50:00Z","inhold":false,"tbdtime":true,"tbddate":true,"probability":-1,"holdreason":"","failreason":"","hashtag":null,"launch_service_provider":{"id":115,"url":"https://ll.thespacedevs.com/2.2.0/agencies/115/","name":"Arianespace","type":"Commercial"},"rocket":{"id":179,"configuration":{"id":167,"launch_library_id":18,"url":"https://ll.thespacedevs.com/2.2.0/config/launcher/167/","name":"Vega","family":"Vega","full_name":"Vega","variant":""}},"mission":{"id":1377,"launch_library_id":null,"name":"Pléiades Neo 4","description":"Pléiades Neo is a constellation of four optical high-resolution Earth observation satellites built and operated by Airbus. It is a dual purpose constellation, serving both civilian and military purposes. Pléiades Neo 4 is the second satellite in the constellation which is to deliver imagery with spatial resolution of 30 cm. It is launched along with several rideshare payloads.","launch_designator":null,"type":"Government/Top Secret","orbit":{"id":17,"name":"Sun-Synchronous Orbit","abbrev":"SSO"}},"pad":{"id":34,"url":"https://ll.thespacedevs.com/2.2.0/pad/34/","agency_id":115,"name":"Ariane Launch Area 1","info_url":null,"wiki_url":"https://en.wikipedia.org/wiki/ELA-1","map_url":"https://www.google.com/maps/?q=5.239,-52.775","latitude":"5.236","longitude":"-52.775","location":{"id":13,"url":"https://ll.thespacedevs.com/2.2.0/location/13/","name":"Kourou, French Guiana","country_code":"GUF","map_image":"https://spacelaunchnow-prod-east.nyc3.digitaloceanspaces.com/media/launch_images/location_13_20200803142412.jpg","total_launch_count":153,"total_landing_count":0},"map_image":"https://spacelaunchnow-prod-east.nyc3.digitaloceanspaces.com/media/launch_images/pad_34_20200803143527.jpg","total_launch_count":18},"webcast_live":false,"image":"https://spacelaunchnow-prod-east.nyc3.digitaloceanspaces.com/media/launcher_images/vega_image_20201111143622.jpeg","infographic":null,"program":[]},{"id":"c185a08e-9d82-4590-a13f-213c84c865e0","url":"https://ll.thespacedevs.com/2.2.0/launch/c185a08e-9d82-4590-a13f-213c84c865e0/","launch_library_id":null,"slug":"soyuz-21bfregat-m-oneweb-9","name":"Soyuz 2.1b/Fregat-M | OneWeb 9","status":{"id":2,"name":"TBD"},"net":"2021-08-20T00:00:00Z","window_end":"2021-08-20T00:00:00Z","window_start":"2021-08-20T00:00:00Z","inhold":false,"tbdtime":false,"tbddate":false,"probability":null,"holdreason":"","failreason":"","hashtag":null,"launch_service_provider":{"id":115,"url":"https://ll.thespacedevs.com/2.2.0/agencies/115/","name":"Arianespace","type":"Commercial"},"rocket":{"id":2855,"configuration":{"id":134,"launch_library_id":153,"url":"https://ll.thespacedevs.com/2.2.0/config/launcher/134/","name":"Soyuz 2.1b/Fregat-M","family":"Soyuz","full_name":"Soyuz 2.1b Fregat-M","variant":"Fregat-M"}},"mission":{"id":1269,"launch_library_id":null,"name":"OneWeb 9","description":"A batch of 34 satellites for the OneWeb satellite constellation, which is intended to provide global Internet broadband service for individual consumers. The constellation is planned to have around 648 microsatellites (of which 60 are spares), around 150 kg each, operating in Ku-band from low Earth orbit.","launch_designator":null,"type":"Communications","orbit":{"id":13,"name":"Polar Orbit","abbrev":"PO"}},"pad":{"id":20,"url":"https://ll.thespacedevs.com/2.2.0/pad/20/","agency_id":null,"name":"31/6","info_url":null,"wiki_url":"","map_url":"http://maps.google.com/maps?q=45.996+N,+63.564+E","latitude":"45.996034","longitude":"63.564003","location":{"id":15,"url":"https://ll.thespacedevs.com/2.2.0/location/15/","name":"Baikonur Cosmodrome, Republic of Kazakhstan","country_code":"KAZ","map_image":"https://spacelaunchnow-prod-east.nyc3.digitaloceanspaces.com/media/launch_images/location_15_20200803142517.jpg","total_launch_count":473,"total_landing_count":0},"map_image":"https://spacelaunchnow-prod-east.nyc3.digitaloceanspaces.com/media/launch_images/pad_20_20200803143516.jpg","total_launch_count":80},"webcast_live":false,"image":"https://spacelaunchnow-prod-east.nyc3.digitaloceanspaces.com/media/launch_images/soyuz25202.1b_image_20210520085931.jpeg","infographic":null,"program":[]}]}